{
    "-": [],
    "09": [],
    "4.5": [
        "6.11"
    ],
    "400": [
        "-"
    ],
    "6.11": [],
    "863": [
        "09",
        "-"
    ],
    "EC": [],
    "GMP": [],
    "Guide": [
        "EC",
        "GMP"
    ],
    "SOP": [],
    "SR067": [
        "SOP"
    ],
    "chap": [],
    "drawing": [],
    "example": [],
    "mentioned": [
        "points"
    ],
    "missing": [],
    "p.": [],
    "plan": [
        "drawing"
    ],
    "points": [
        "mentioned",
        "863",
        "missing"
    ],
    "root": [
        "points",
        "Guide",
        "p.",
        "chap",
        "4.5"
    ],
    "sampling": [],
    "water": []
}